%YAML 1.1
%TAG !u! tag:unity3d.com,2011:
--- !u!114 &11400000
MonoBehaviour:
  m_ObjectHideFlags: 0
  m_CorrespondingSourceObject: {fileID: 0}
  m_PrefabInstance: {fileID: 0}
  m_PrefabAsset: {fileID: 0}
  m_GameObject: {fileID: 0}
  m_Enabled: 1
  m_EditorHideFlags: 0
  m_Script: {fileID: 11500000, guid: 08651b7d6313384478cd4c7f2078306f, type: 3}
  m_Name: AutomaticRifleBulltet
  m_EditorClassIdentifier: 
  id: 20
  name: Bullet
  itemType: 0
  icon: {fileID: 21300000, guid: f016b757760402f4382461214aed4c53, type: 3}
  stackeable: 1
  description: 
  model: {fileID: 0}
  hpPlus: 0
  wso: {fileID: 11400000, guid: 2c5511a51cb672647b1a228706ee435a, type: 2}
  HP: 0
