%YAML 1.1
%TAG !u! tag:unity3d.com,2011:
--- !u!114 &11400000
MonoBehaviour:
  m_ObjectHideFlags: 0
  m_CorrespondingSourceObject: {fileID: 0}
  m_PrefabInstance: {fileID: 0}
  m_PrefabAsset: {fileID: 0}
  m_GameObject: {fileID: 0}
  m_Enabled: 1
  m_EditorHideFlags: 0
  m_Script: {fileID: 11500000, guid: 1a20988506f568b498bba5acf348249b, type: 3}
  m_Name: BombaDistraccionRecipe
  m_EditorClassIdentifier: 
  itemCraft:
    Name: 'Bomba '
    id: 0
    icon: {fileID: 0}
    stackeable: 0
    _item: {fileID: 0}
    model: {fileID: 0}
  amount: 1
  itemsNeedForCrafting:
  - Item:
      Name: MaderaNoseque
      id: 11
      icon: {fileID: 0}
      stackeable: 0
      _item: {fileID: 0}
      model: {fileID: 0}
    Amount: 1
  - Item:
      Name: 
      id: 5
      icon: {fileID: 0}
      stackeable: 0
      _item: {fileID: 0}
      model: {fileID: 0}
    Amount: 1
  - Item:
      Name: 
      id: 101
      icon: {fileID: 0}
      stackeable: 0
      _item: {fileID: 0}
      model: {fileID: 0}
    Amount: 1
  isCrafteable: 0
