%YAML 1.1
%TAG !u! tag:unity3d.com,2011:
--- !u!1 &5959861966516211966
GameObject:
  m_ObjectHideFlags: 0
  m_CorrespondingSourceObject: {fileID: 0}
  m_PrefabInstance: {fileID: 0}
  m_PrefabAsset: {fileID: 0}
  serializedVersion: 6
  m_Component:
  - component: {fileID: 5959861966516211952}
  - component: {fileID: 5959861966516211953}
  - component: {fileID: 5959861966516211955}
  - component: {fileID: 678365806}
  m_Layer: 0
  m_Name: EnemySpawnController
  m_TagString: Untagged
  m_Icon: {fileID: 0}
  m_NavMeshLayer: 0
  m_StaticEditorFlags: 0
  m_IsActive: 1
--- !u!4 &5959861966516211952
Transform:
  m_ObjectHideFlags: 0
  m_CorrespondingSourceObject: {fileID: 0}
  m_PrefabInstance: {fileID: 0}
  m_PrefabAsset: {fileID: 0}
  m_GameObject: {fileID: 5959861966516211966}
  m_LocalRotation: {x: 0, y: 0, z: 0, w: 1}
  m_LocalPosition: {x: 618.02, y: 18.44, z: 470.21}
  m_LocalScale: {x: 1, y: 1, z: 1}
  m_Children: []
  m_Father: {fileID: 0}
  m_RootOrder: 0
  m_LocalEulerAnglesHint: {x: 0, y: 0, z: 0}
--- !u!114 &5959861966516211953
MonoBehaviour:
  m_ObjectHideFlags: 0
  m_CorrespondingSourceObject: {fileID: 0}
  m_PrefabInstance: {fileID: 0}
  m_PrefabAsset: {fileID: 0}
  m_GameObject: {fileID: 5959861966516211966}
  m_Enabled: 1
  m_EditorHideFlags: 0
  m_Script: {fileID: 11500000, guid: 35d418c7cfed4ad4aa940ebd6f6bfa9e, type: 3}
  m_Name: 
  m_EditorClassIdentifier: 
  EnemyZoneLvls:
  - EnemyZoneName: ZoneLvL1
    EnemyStartNumber: 5
    EnemySpawnFreq: 8
    EnemyBoxCollider: {fileID: 0}
    EnemyZombieTypesOnThatZone:
    - ZombieName: ZombieLvL1
      ZombieGameObject: {fileID: 0}
      AppearPorcentatgeOnThatZone: 90
    - ZombieName: ZombieLvL2
      ZombieGameObject: {fileID: 0}
      AppearPorcentatgeOnThatZone: 5
    - ZombieName: ZombieLvL3
      ZombieGameObject: {fileID: 0}
      AppearPorcentatgeOnThatZone: 3
    - ZombieName: ZombieLvL4
      ZombieGameObject: {fileID: 0}
      AppearPorcentatgeOnThatZone: 2
  - EnemyZoneName: 
    EnemyStartNumber: 8
    EnemySpawnFreq: 4
    EnemyBoxCollider: {fileID: 0}
    EnemyZombieTypesOnThatZone:
    - ZombieName: 
      ZombieGameObject: {fileID: 0}
      AppearPorcentatgeOnThatZone: 60
    - ZombieName: 
      ZombieGameObject: {fileID: 0}
      AppearPorcentatgeOnThatZone: 20
    - ZombieName: 
      ZombieGameObject: {fileID: 0}
      AppearPorcentatgeOnThatZone: 15
    - ZombieName: 
      ZombieGameObject: {fileID: 0}
      AppearPorcentatgeOnThatZone: 5
  - EnemyZoneName: 
    EnemyStartNumber: 0
    EnemySpawnFreq: 0
    EnemyBoxCollider: {fileID: 0}
    EnemyZombieTypesOnThatZone:
    - ZombieName: 
      ZombieGameObject: {fileID: 0}
      AppearPorcentatgeOnThatZone: 40
    - ZombieName: 
      ZombieGameObject: {fileID: 0}
      AppearPorcentatgeOnThatZone: 30
    - ZombieName: 
      ZombieGameObject: {fileID: 0}
      AppearPorcentatgeOnThatZone: 20
    - ZombieName: 
      ZombieGameObject: {fileID: 0}
      AppearPorcentatgeOnThatZone: 10
  - EnemyZoneName: 
    EnemyStartNumber: 0
    EnemySpawnFreq: 0
    EnemyBoxCollider: {fileID: 0}
    EnemyZombieTypesOnThatZone:
    - ZombieName: 
      ZombieGameObject: {fileID: 0}
      AppearPorcentatgeOnThatZone: 50
    - ZombieName: 
      ZombieGameObject: {fileID: 0}
      AppearPorcentatgeOnThatZone: 30
    - ZombieName: 
      ZombieGameObject: {fileID: 0}
      AppearPorcentatgeOnThatZone: 10
    - ZombieName: 
      ZombieGameObject: {fileID: 0}
      AppearPorcentatgeOnThatZone: 10
  - EnemyZoneName: 
    EnemyStartNumber: 0
    EnemySpawnFreq: 0
    EnemyBoxCollider: {fileID: 0}
    EnemyZombieTypesOnThatZone:
    - ZombieName: 
      ZombieGameObject: {fileID: 0}
      AppearPorcentatgeOnThatZone: 60
    - ZombieName: 
      ZombieGameObject: {fileID: 0}
      AppearPorcentatgeOnThatZone: 20
    - ZombieName: 
      ZombieGameObject: {fileID: 0}
      AppearPorcentatgeOnThatZone: 15
    - ZombieName: 
      ZombieGameObject: {fileID: 0}
      AppearPorcentatgeOnThatZone: 5
  - EnemyZoneName: 
    EnemyStartNumber: 0
    EnemySpawnFreq: 0
    EnemyBoxCollider: {fileID: 0}
    EnemyZombieTypesOnThatZone:
    - ZombieName: 
      ZombieGameObject: {fileID: 0}
      AppearPorcentatgeOnThatZone: 50
    - ZombieName: 
      ZombieGameObject: {fileID: 0}
      AppearPorcentatgeOnThatZone: 30
    - ZombieName: 
      ZombieGameObject: {fileID: 0}
      AppearPorcentatgeOnThatZone: 10
    - ZombieName: 
      ZombieGameObject: {fileID: 0}
      AppearPorcentatgeOnThatZone: 10
  - EnemyZoneName: 
    EnemyStartNumber: 0
    EnemySpawnFreq: 0
    EnemyBoxCollider: {fileID: 0}
    EnemyZombieTypesOnThatZone:
    - ZombieName: 
      ZombieGameObject: {fileID: 0}
      AppearPorcentatgeOnThatZone: 30
    - ZombieName: 
      ZombieGameObject: {fileID: 0}
      AppearPorcentatgeOnThatZone: 30
    - ZombieName: 
      ZombieGameObject: {fileID: 0}
      AppearPorcentatgeOnThatZone: 15
    - ZombieName: 
      ZombieGameObject: {fileID: 0}
      AppearPorcentatgeOnThatZone: 15
  - EnemyZoneName: 
    EnemyStartNumber: 0
    EnemySpawnFreq: 0
    EnemyBoxCollider: {fileID: 0}
    EnemyZombieTypesOnThatZone:
    - ZombieName: 
      ZombieGameObject: {fileID: 0}
      AppearPorcentatgeOnThatZone: 30
    - ZombieName: 
      ZombieGameObject: {fileID: 0}
      AppearPorcentatgeOnThatZone: 30
    - ZombieName: 
      ZombieGameObject: {fileID: 0}
      AppearPorcentatgeOnThatZone: 15
    - ZombieName: 
      ZombieGameObject: {fileID: 0}
      AppearPorcentatgeOnThatZone: 15
  enemyGameObjectsAux:
  - ZombieName: ZombieLvL1
    ZombieGameObject: {fileID: 0}
    AppearPorcentatgeOnThatZone: 0
  - ZombieName: ZombieLvL2
    ZombieGameObject: {fileID: 0}
    AppearPorcentatgeOnThatZone: 0
  - ZombieName: ZombieLvL3
    ZombieGameObject: {fileID: 0}
    AppearPorcentatgeOnThatZone: 0
  - ZombieName: ZombieLvL4
    ZombieGameObject: {fileID: 0}
    AppearPorcentatgeOnThatZone: 0
  SecureZones:
  - zoneName: SpawnHome
    zoneCenter: {x: 383, y: 0, z: 684.5}
    zoneRadius: {x: 39, y: 100, z: 37}
    isActive: 1
  - zoneName: Church
    zoneCenter: {x: 649.1, y: 0, z: 497.7}
    zoneRadius: {x: 31, y: 100, z: 50.1}
    isActive: 0
  enemiesSpawned: []
  activeZombieTypeZone: []
--- !u!65 &5959861966516211955
BoxCollider:
  m_ObjectHideFlags: 0
  m_CorrespondingSourceObject: {fileID: 0}
  m_PrefabInstance: {fileID: 0}
  m_PrefabAsset: {fileID: 0}
  m_GameObject: {fileID: 5959861966516211966}
  m_Material: {fileID: 0}
  m_IsTrigger: 0
  m_Enabled: 1
  serializedVersion: 2
  m_Size: {x: 1, y: 1, z: 1}
  m_Center: {x: 0, y: 0, z: 0}
--- !u!114 &678365806
MonoBehaviour:
  m_ObjectHideFlags: 0
  m_CorrespondingSourceObject: {fileID: 0}
  m_PrefabInstance: {fileID: 0}
  m_PrefabAsset: {fileID: 0}
  m_GameObject: {fileID: 5959861966516211966}
  m_Enabled: 1
  m_EditorHideFlags: 0
  m_Script: {fileID: 11500000, guid: 9fe1a4d45cd617c49b669053bd9f39d1, type: 3}
  m_Name: 
  m_EditorClassIdentifier: 
  enemiesPool: []
  enemiesForPool:
  - enemyGameObjectName: ZombieLvL1
    enemyGameObject: {fileID: 1000010883479920, guid: 7b4ea8e36f9e98348be4466b1e9f88b5,
      type: 3}
    amountOfEnemies: 20
  - enemyGameObjectName: ZombieLvL2
    enemyGameObject: {fileID: 1000010883479920, guid: 7b4ea8e36f9e98348be4466b1e9f88b5,
      type: 3}
    amountOfEnemies: 20
  - enemyGameObjectName: ZombieLvL3
    enemyGameObject: {fileID: 1000010883479920, guid: 7b4ea8e36f9e98348be4466b1e9f88b5,
      type: 3}
    amountOfEnemies: 20
  - enemyGameObjectName: ZombieLvL4
    enemyGameObject: {fileID: 1000010883479920, guid: 7b4ea8e36f9e98348be4466b1e9f88b5,
      type: 3}
    amountOfEnemies: 20
